<svg width="8" height="15" viewBox="0 0 8 15"  xmlns="http://www.w3.org/2000/svg">
  <path d="M0 7.017C-0.000141155 7.14611 0.0252294 7.27397 0.0746536 7.39324C0.124078 7.51251 0.196584 7.62084 0.288002 7.712L6.323 13.746C6.5083 13.9256 6.75678 14.0251 7.0148 14.023C7.27282 14.021 7.5197 13.9176 7.70216 13.7352C7.88461 13.5527 7.98801 13.3058 7.99004 13.0478C7.99207 12.7898 7.89256 12.5413 7.713 12.356L2.373 7.017L7.713 1.678C7.89256 1.4927 7.99207 1.24423 7.99004 0.986204C7.98801 0.728182 7.88461 0.481303 7.70216 0.298848C7.5197 0.116393 7.27282 0.0129935 7.0148 0.0109644C6.75678 0.00893531 6.5083 0.10844 6.323 0.288003L0.288002 6.322C0.196584 6.41317 0.124078 6.5215 0.0746536 6.64077C0.0252294 6.76004 -0.000141155 6.8879 0 7.017Z" />
</svg>
