<svg xmlns="http://www.w3.org/2000/svg" width="16.34" height="20.406" viewBox="0 0 16.34 20.406">
  <g id="Сгруппировать_53" data-name="Сгруппировать 53" transform="translate(-3.814 -1.814)">
    <path id="Контур_1134" data-name="Контур 1134" d="M11.985,15.346c-3.868,0-7.171.585-7.171,2.927s3.282,2.948,7.171,2.948c3.868,0,7.17-.586,7.17-2.927S15.873,15.346,11.985,15.346Z" fill="none"  stroke-linecap="round" stroke-linejoin="round" stroke-width="2" fill-rule="evenodd"/>
    <path id="Контур_1135" data-name="Контур 1135" d="M11.985,12.006a4.58,4.58,0,1,0-.032,0Z" fill="none" stroke-linecap="round" stroke-linejoin="round" stroke-width="2" fill-rule="evenodd"/>
  </g>
</svg>
